…
## Loading and preprocessing the data  

```r
library("ggplot2")
library("dplyr")

if(!file.exists("activity.csv")){
  unzip("activity.zip")
}
activity <- tbl_df(read.csv(file = "activity.csv", header = TRUE, stringsAsFactors = FALSE))
activity
```

```
## # A tibble: 17,568 × 3
##    steps       date interval
##    <int>      <chr>    <int>
## 1     NA 2012-10-01        0
## 2     NA 2012-10-01        5
## 3     NA 2012-10-01       10
## 4     NA 2012-10-01       15
## 5     NA 2012-10-01       20
## 6     NA 2012-10-01       25
## 7     NA 2012-10-01       30
## 8     NA 2012-10-01       35
## 9     NA 2012-10-01       40
## 10    NA 2012-10-01       45
## # ... with 17,558 more rows
```

## What is mean total number of steps taken per day?  

#### 1. Calculation and presentation of total number of steps taken per day

```r
totalSteps <- activity%>%
              filter(!is.na(steps))%>%
              group_by(date)%>%
              summarise(total_steps = sum(steps, na.rm=TRUE))
totalSteps
```

```
## # A tibble: 53 × 2
##          date total_steps
##         <chr>       <int>
## 1  2012-10-02         126
## 2  2012-10-03       11352
## 3  2012-10-04       12116
## 4  2012-10-05       13294
## 5  2012-10-06       15420
## 6  2012-10-07       11015
## 7  2012-10-09       12811
## 8  2012-10-10        9900
## 9  2012-10-11       10304
## 10 2012-10-12       17382
## # ... with 43 more rows
```
…
## What is the average daily activity pattern?  

#### 1. Calculation and presentation of average steps per day in 5 minutes interval

```r
averageSteps <- activity%>%
        group_by(interval)%>%
        filter(!is.na(steps))%>%
        summarise(average_steps = mean(steps, na.rm=TRUE))
averageSteps
```

```
## # A tibble: 288 × 2
##    interval average_steps
##       <int>         <dbl>
## 1         0     1.7169811
## 2         5     0.3396226
## 3        10     0.1320755
## 4        15     0.1509434
## 5        20     0.0754717
## 6        25     2.0943396
## 7        30     0.5283019
## 8        35     0.8679245
## 9        40     0.0000000
## 10       45     1.4716981
## # ... with 278 more rows
```
…
```r
activity2 <- activity
nas <- is.na(activity2$steps)
average_interval <- tapply(activity2$steps, activity2$interval, mean, na.rm=TRUE, simplify = TRUE)
activity2$steps[nas] <- average_interval[as.character(activity2$interval[nas])]
activity2 <- activity2[, c("date", "interval", "steps")]
activity2
```

```
## # A tibble: 17,568 × 3
##          date interval     steps
##         <chr>    <int>     <dbl>
## 1  2012-10-01        0 1.7169811
## 2  2012-10-01        5 0.3396226
## 3  2012-10-01       10 0.1320755
## 4  2012-10-01       15 0.1509434
## 5  2012-10-01       20 0.0754717
## 6  2012-10-01       25 2.0943396
## 7  2012-10-01       30 0.5283019
## 8  2012-10-01       35 0.8679245
## 9  2012-10-01       40 0.0000000
## 10 2012-10-01       45 1.4716981
## # ... with 17,558 more rows
```
…
## Are there differences in activity patterns between weekdays and weekends?  

#### 1. Creation of new varibale called WeekType for Weekday & Weekend:

```r
activity2$date <- as.Date(activity2$date)
activity2 <- activity2%>%
            mutate(weektype= ifelse(weekdays(activity2$date)=="Saturday"|
            weekdays(activity2$date)=="Sunday", "Weekend", "Weekday"))
activity2
```

```
## # A tibble: 17,568 × 4
##          date interval     steps weektype
##        <date>    <int>     <dbl>    <chr>
## 1  2012-10-01        0 1.7169811  Weekday
## 2  2012-10-01        5 0.3396226  Weekday
## 3  2012-10-01       10 0.1320755  Weekday
## 4  2012-10-01       15 0.1509434  Weekday
## 5  2012-10-01       20 0.0754717  Weekday
## 6  2012-10-01       25 2.0943396  Weekday
## 7  2012-10-01       30 0.5283019  Weekday
## 8  2012-10-01       35 0.8679245  Weekday
## 9  2012-10-01       40 0.0000000  Weekday
## 10 2012-10-01       45 1.4716981  Weekday
## # ... with 17,558 more rows
```
…
